{
    "/js/build/app.js": "/js/build/app.js",
    "/css/app.css": "/css/app.css",
    "/js/build/CSS3DRenderer.js": "/js/build/CSS3DRenderer.js",
    "/js/build/TrackballControls.js": "/js/build/TrackballControls.js"
}